

புணர்ச்சி விதிகள்

புணர்ச்சி நிகழும் முறைமை - ஒன்று

உயிர்ஈறு + உயிர்
	ஆ + உண்டு = ஆவுண்டு
உயிர்ஈறு + மெய்
	ஆ + வலிது = ஆவலிது
மெய்ஈறு + உயிர்
	ஆல் + இலை = ஆலிலை
மெய்ஈறு + மெய்
	ஆல் + வீழ்ந்தது = ஆல்வீழ்ந்தது


இரண்டு சொற்கள் புணரும் 




இந்த வகையான புணர்ச்சி மூன்றுவகையான திரிபுகளை உடையது.


திரிதல் (கடல் + கரை) = கடற்கரை
	ஒரு எழுத்து வேறு எழுத்தாய் மாறுதல்
மிகுதல் (வாழை + பழம்) = வாழைப்பழம்
	புதிய எழுத்து வருதல்
குன்றல் (மரம் + வேர்) = மரவேர்
	முன் இருந்த எழுத்து நீங்குதல்









 













நன்னூல் மெய்ம்மயக்கம்

இடைநிலை மெய்ம்மயக்கம் 
தனிமொழிக்கு இடையிலும் தொடர்மொழிக்கு இடையிலும்
ஒரு மெய்யெழுத்துடன் மற்றொரு மெய்யெழுத்து இயைந்து 
வருவது இடைநிலை மெய்ம்மயக்கம் எனப்படும் 
க்,ச்,த்,ப் → தவிர பிறமெய்கள் வேறு மெய்களுடன் இயைந்து வரும்
வேற்றுநிலை மெய்ம்மயக்கம் 
ர்,ழ் தவிர பிற மெய்கள் தம் எழுத்துடன் மயங்கிவரும் 
உடனிலை மெய்ம்மயக்கம்

உயுருடன் மெய் மெய்யுடன் உயிர் மயங்கும்
மயக்கத்திற்கு வரையரை இல்லை எப்படி 
வேண்டுமானாலும் மயங்கி வரும்

அல், புள் →  உயிருடன் மெய் மயங்கி வருதல் 
கா, பூ → மெய்யுடன் உயிர் மயங்குதல் 

வேற்றுநிலை மெய்ம்மயக்கம்
ஙம்முன் கவ்வாம் வம்முன் யவ்வே
ங் க் தங்கம் வெங்காயம் வங்கம் சுங்கம் கங்கை
வ் ய் தெவ்யாது 

ஞநமுன் தம்மினம் யகரமொ டாகும் 
ஞ் ,ச்,ய் → கஞ்சன், உறிஞ்யாது
ந் த் ய் → கந்தள் , பொந்யாது

விதி - 113 
டறமுன் கசப மெய்யுடன் மயங்கும்
ட் க் ச் ப் → வெட்கம், காட்சி, திட்பம் 
ற் க் ச் ப் → ஒற்கம் , சுற்சிலை, கற்பவை

விதி - 114
ணனமுன் இனம்கச ஞபமய வவ்வரும்
ண் க் ச் ஞ் ட் ப் ம் ய் வ் 
=> வெண்கலம் , வெண்சோறு, வெண்ஞமலி, தண்டு,
காண்பல், நாண்மலர், நாண்மலர், மண்யாது, மண்வலுது

ன் க் ச் ஞ் ப் ம் ய் வ் ற் 
=> புன்பண், புன்செய், புன்ஞமலி , துன்பம், பொன்மணி , பொன்யாது,
பொன்வலிது, மன்றம்

விதி - 115
மம்முன் பயவ மயங்கும் எனப
ம் ப் ய் வ் => 
கம்பன், கலம்யாது, கலம்வலிது



விதி - 116

யரழ முன்னர் மொழிமதல் மெய்வரும் 
ய் க் ங் ச் ஞ் த் ந் ப் ம் ய் வ் 
வேய்கடிது வேய்ங்குழல், வேய்சிறிது வேய்ஞான்றது 
வேய்திது வேய்நீண்டது வேய்பெரிது வேய்மாண்டது
அய்யர் வேய்வலிது

ர் க் ங் ச் ஞ் த் ந் ப் ம் ய் வ்
வேர்கடிது ஆர்ங்கோடு வேர்சிறிது வேர்ஞான்றது வேர்தீது
வேர்நீண்டது வேர்பெரிது வேர்மாண்டது வேர்யாது வேர்வலிது

ழ் க் ங் ச் ஞ் த் ந் ப் ம் ய் வ் 
தாழ்கடிது பாழ்ங்கிணறு தாழசிறிது 
தாழ்ஞான்றது தாழ்தீது தாழ்நீண்டது தாழ்பெரிது
தாழ்மாண்டது தாழ்யாது தாழ்வலிது

விதி -117
லளமுன் கசப வயஒன் றும்மே
ல் க் ச் ப் ய் வ் 
வேல்கடிது வேல்சிறிது வேல்பெரிது வேல்யாது வேல்வலிது
ள் க் ச் ப் ய் வ்
வாள்கடிது வாள்சிது வாள்பெரிது வாள்யாது வாள்வலிது


விதி - 118
ரழ ஐல்லன தம்முன் தாமுடன் நிலையும்
ரழ தவிர பிறமெய்கள் முன் அந்த மெய்களே மயா~~~~
க் க் = பக்கம்
ம் ம் = கம்மியர்
ங் ங் = இங்ஙனம்
ய் ய் = அய்யர்
ச் ச் = அச்சம்

ஞ் ஞ் = அஞ்ஞாலம்
ல்ல் = வல்லி
ட் ட் = பட்டு
வ்வ் = சுவ்வை
ண்ண் = திண்ணம் 

த் த் = பத்தினி
ள்ள் = கள்ளம்
ந் ந் = முந்நீர்
ற்ற் = சுற்றம்
ப் ப் = மூப்பு
ன்ன் = பொன்னம்







மூவொற்று உடனிலை
விதி -119
யரழ ஒற்றின்முன் கசதப ஙஞநம
ஈரொற் றாம்ரழத் தனிக்குறில் அணையா

ய் க்க் ங்க் ச்ச் ஞ்ச் த்த் ந்த் ப்ப் ம்ப்
வேய்க்கு வேய்ங்குழல் வேய்ச்சிரை தேய்ஞ்சது
வேய்த்தலை காய்ந்தனம் வேய்ப்புறம் வேய்ம்புறம்

ர் க்க் ங்க் ச்ச் ஞ்ச் த்த் ந்த் ப்ப் ம்ப்
வேர்க்குரை , ஆர்ங்கோடு வேர்ச்சிறை கூர்ஞ்சிறை
வேர்த்தலை நேர்ந்தனம் வேர்ப்புறம் ஈர்ம்பனை

ழ் க்க் ங்க் ச்ச் ஞ்ச் த்த் ந்த் ப்ப் ம்ப்
வீழ்க்குறை பாழ்ங்கிணறு வீழ்ச்சிறை பாழ்ஞ்சுனை
வீழ்ந்தலை வாழ்ந்தனம் வீழ்ப்புறம் பாழ்ம்பதி

செய்யுளில் ஈரொற்றாய் நிற்கும் எழுத்துகள் 
விதி -120
வளமெய் திறிந்த னணமுன் மகாரம்
னநந்தீ ரொற்றாம் செய்யு --ள்ளே

ல் → ன் ம் 
போல் 
ள் → ண் ம் மருள் மருண் + ம் மருண்ம்

பாடல்களில் அல்லது கவிதைகளில் மட்டும் வரும்

நன்னூல் மேய்ம்மயக்க விதிகள் - ஈரொற்று உடனிலை





க் க்
ம் ப் ம்ய்வ்
ங் க் ங்
ய்க்ங்ச்ஞ்த்ந்ப்ம்ய்வ்
ச்ச்
ர் க்ங்ச்ஞ்த்ந்ப்ம்ய்வ்
ஞ் ச் ஞ் ய்
வ் ய்வ்
ட் க் ச் ட் ப் 
ழ் க்ங்ச்ஞ்த்ந்ப்ம்ய்வ்
ண் க் ச்ஞ்ட் ப்ம்ய்வ்
ல் க்ச்ப்ய்வ்
த்த்
ள் க்ச்ப்ய்வ்ள்
ந் த்ந்ய்
ற் க்ச்ப்ற்
ப்ப்
ன் க்ச்ஞ்ப்ம்ய்வ்ற்ன்






நன்னூல் மெய்ம்மயக்கம் -- மூவொற்று உடனிலை
ய் க்க் ங்க் ச்ச் ஞ்ச் த்த் ந்த் ப்ப் ம்ப்
ர் க்க் ங்க் ச்ச் ஞ்ச் த்த் ந்த் ப்ப் ம்ப்
ழ் க்க் ங்க் ச்ச் ஞ்ச் த்த் ந்த் ப்ப் ம்ப்

நன்னூல் மெய்ம்மயக்கம் -- செய்யுளில்
ல் → ன் ம்
ள் → ண் ம்

























புணர்ச்சி விதிகள் - தொல்காப்பியம்



புணர்ச்சி நிகழும் முறைமை - ஒன்று

உயிர்ஈறு + உயிர்
	ஆ + உண்டு = ஆவுண்டு
உயிர்ஈறு + மெய்
	ஆ + வலிது = ஆவலிது
மெய்ஈறு + உயிர்
	ஆல் + இலை = ஆலிலை
மெய்ஈறு + மெய்
	ஆல் + வீழ்ந்தது = ஆல்வீழ்ந்தது


இரண்டு சொற்கள் புணரும்(சேரும்) தன்மைகன் இந்த
நான்கு வகைகளிலேதான் நடக்கும் . இதனை 
எழுத்துக்களின் புணர்ச்சி என்பர்
!----------------------


இந்த உயிர், மெய்ஈற்றுச் சொற்கள் சொல் தன்மைகளின் 
அடிப்படையில் அதையும் முறைமையைப் பின்வருமாறு 
விளங்கிக்கொள்ள வேண்டும் இதனைச் 
சொற்களின் புணர்ச்சி என்பர்
!--------------------

பெயர் + பெயர்
	காத்தன் + கை = காத்தன்கை
	முருகன் + கை = முருகன்கை

பெயர் + வினை
	பரமேசுவரன் + உண்டான் = பரமேசுவரனுண்டான்

வினை + பெயர்
	வந்தான் + பரமேசு = வந்தான்பரமேசு

வினை + வினை 
	வந்தான் + சென்றான் = வந்தான்சென்றான்



இந்த வகையான புணர்ச்சி மூன்றுவகையான திரிபுகளை 
உடையது.


திரிதல் (கடல் + கரை) = கடற்கரை
	ஒரு எழுத்து வேறு எழுத்தாய் மாறுதல்
மிகுதல் (வாழை + பழம்) = வாழைப்பழம்
	புதிய எழுத்து வருதல்
குன்றல் (மரம் + வேர்) = மரவேர்
	முன் இருந்த எழுத்து நீங்குதல்

!(? குன்றல் == கெடுதல்)


விதி ஒன்று 

நிலைமொழி + வருமொழி அடைமொழிகளுடன் வந்தால்
புணர்ச்சி நடக்கும் .

பனைமரம் + கிளை = பனைமரக்கிளை

!---------பனைமர + க் + கிளை
!---------------மர?ம் + க்?




விதி இரண்டு 

வேற்றுமை உருபுகள் : ஐ, ஒரு, கு, இன், அது, கண்
வேற்றுமை உருபு நான்கு(கு) , 
வேற்றுமை உருபு ஏழு(கண்) 
ஆகிய இரண்டும்  வருமொழியில் வரும்பொழுது 
வல்லெழுத்து, மெல்லெழுத்து மிகுந்து வரும்.

வல்லெழுத்து மிகுந்து
ஊர் + கு = ஊர்க்கு
ஊர்+ கண் = ஊர்க்கண்

!----example is not enough

மெல்லெழுத்து மிகுந்து

தம் + கண் = தங்கண்
எம் + கண் = எங்கண்

!----example is not enough



திரிந்து வரும்;

பொன் + கு = பொற்கு
பொன் + கண் = பொற்கண்
இவன் + கு = இவற்கு
கந்தள் + கு = கந்தற்கு






விதி மூன்று 

வருமொழியில் ஆறாம் வேற்றுமை உருபு(அது) வந்தால்
அது உருபின் 'அ' என்னும் எழுத்து நிலைமொழியுடன் சேரும்

!----- உடல்மேல் உயிர் வந்து ஒன்றுவது இயல்பே

நம் + அது = நமது
எம் + அது = எமது
தன் + அது = தமநு
என் + அது = எனது
நின் + அது = நினது







விதி நான்கு 
பெயர் நிலைமொழியாய் இருக்கும் போது +
வருமொழியில் வேற்றுமை உருபு வந்தால் புணர்ச்சி நடக்கும்

பரமேசுவரன் + ஐ = பரமேசுவரனை
சீனி + ஆல் = சீனியால்
திலீபன் + கு = திலீபனிற்கு
சத்தியராசு + இன் = சத்தியராசுயின்











					புணரியல்
சாரியைப் புணர்ச்சி 

விதிப்பட்டியல் (நூற்.120, இளம்பூரணல் உரை)

சாரியை = ["இன்","வற்று","அத்து","அம்","ஒன்",
	"ஆன்","அக்கு","இக்கு",]
பிறசாரியை = ["தம்","நம்","நும்","உம்","கெழு","ஏ",
	"ஐ","ஞான்று",]

விதி ஒன்று

இன் சாரியை திரிதல் (நூற்.121)
நிலைமொழி ஆகார ஈற்றுச் சொல்லாய் வரும்போது + "இன்" 
சாரியை நடுவில் இருக்க + வருமொழிச் சொல் எந்தச் 
சொல்லாக இருந்தாலும்  "இன்" சாரியையில் உள்ள 
"இ" நீங்கும்.

சான்று 
1)	ஆ + இன் + ஐ 
	ஆ + [இX]ன் + ஐ 
	ஆ + ன்+ ஐ
	ஆ + [ ன்+ ஐ ]	
	ஆனை

2)	ஆ + இன் + ஐ 
	ஆ+ [வ்] + இன் + ஐ 
!---------- உடம்படுமெய் தோன்றும்
	ஆ + [ வ் + இ] +ன் + ஐ  ==> ஆவினை
	ஆ +  வி +ன் + ஐ
	ஆ + வி + [ ன்+ ஐ ]	
	ஆவினை



3)	ஆ + இன் + கோடு 
	ஆ +[ இ X] ன் + கோடு 
	ஆ + ன் + கோடு  
	ஆன்கோடு
	
	
4)	ஆ + இன் + கோடு  
	ஆ+ [வ்] + இன் + கோடு 
!---------- உடம்படுமெய் தோன்றும்
	ஆ + [ வ் + இ] +ன்  + கோடு  ==> ஆவினை
	ஆ + வி + ன் +  + கோடு
	ஆவின்கோடு



விதி இரண்டு  (நூற்.122)

இன்இற் ஆதல் 
அளவைக் குறிக்கும் சொல்லின் + "இன்" சாரியையில் 
உள்ள னகரம் -> றகரம் ஆதலும் உண்டு . 

1) பத்து + 'இன்' + உழக்கு 
	பத்து + இ[ன் = ற்] + உழக்கு  
	பத்து + இற் + உழக்கு		த்
!------- உயிர் வரின் உக்குறல் மெய் விட்டோடல்
	பத்[ த் + உX] + இற் + உழக்கு
	பத்த் + இற் + உழக்கு		 
	பத்[ த் + இ ]ற் + உழக்கு		 
	பதி + ற் + றுழக்கு
   ==>	பதிற்றுழக்கு
    
! ? 2)---






விதி மூன்று

வற்று -> அற்று ஆக மாறுதல் (நூற்.123)
சுட்டு சொல் நிலைமொழியில் வர + வற்று சாரியை 
இடையில் வரும்போது + ஐ வருமொழியாய் இருக்கும் போது.

	வற்று சாறியை -> அற்று-வாக மாறும்

1)	அவை + வற்று + ஐ
!--- இஈஐ வலி யவ்வும் எனையவளி வவ்வும்

	அவை[ய்] + அற்று + ஐ 
!------- வற்று அற்று ஆக மாறும்

	அவை[ய்] + அற்[ற் + உX] + ஐ 

	அவை[ய்] + அற்ற்  + ஐ 

	அவை + ய் + அற்ற் + ஐ 

	அவையற்றை 

	


விதி நான்கு

இன் -> இற் ஆக மாறுதல் (நூற்-124)
நிலைமொழி + இடைமொழி 'ன்' ஈற்றுச் சாரியை + வருமொழி 
நான்காவது வேற்றுமை உருபு இருக்கும்போது -> 'இன்' சாரியையின் 
இறுதி 'ன்' எழுத்தாக மாறும்.  

சான்று : 

	விள + இன் + கு
!----- உடம்படுமெய் வருதல் 
	விள + வ் + இன் + கு	(வ்+இ)
	விளவி[ன்-ற் ]+ கு
	--	இன் -> இற் ஆக மாறுதல்
	விளவிற் + கு
	விளவிற்கு
	




விதி ஐந்து

ஆன் -> ஆற்  ஆதல் (நூற் - 125)
நிலைமொழி + இடைமொழி 'ஆன்' சாரியையில் 
'ன்' -> 'ற்' ஆக மாறும்.  

 	பரணி + ஆன் + கொண்டான்	 	

	பரணி + ய் + ஆன் + கொண்டான்	 	
	 ய் - உடம்படுமெய் தோன்றுதல்
	 
    பரணி+[ய் + ஆ] ன் + கொண்டான்

    பரணியான் + கொண்டான்
		---ஆன் -> ஆற்  ஆதல் 
    பரணியாற் + கொண்டான்

    பரணியாற்கொண்டான்





விதி ஆறு

அத்து -> த்து -> அ   கெடுதல் (நூற் - 126)
நிலைமொழி + இடைமொழி 'அத்து' சாரியை வரும்போது 
+ வருமொழிச் சொல் வரும்போது -> 
 அத்துச் சாரியையின் அகரம் நீங்கும்.


	மகம் + அத்து + கை/கிளை,
	மரம் + அத்து +  கை/கிளை
	
	மக[ம்X] + [அX]த்து + கை/கிளை,
	மர[ம்X] + [அX]த்து + கை/கிளை

	மக + த்து + கை/கிளை, 
	மர + த்து + கை/கிளை


	மகத்து + கை , 
	மரத்து + கிளை			

	மகத்து + க் + கை , 
	மரத்து + க் + கிளை

	க் - வல்ல்லுனம் தோன்றும்

	மகத்துக்கை 	
	மரத்துக்கிளை






விதி ஏழு

இக்கு -> க்கு -> இ   கெடுதல் (நூற்.127)
நிலைமொழி + இடைமொழி இக்குசாரியை 
+ வருமொழி -> 'இ' எழுத்து நீங்கும்

	 
	ஆடி + இக்கு + கொண்டான்
	இக்கு -> க்கு 
	ஆடி + க்கு + கொண்டான்
	க்கு -> இ 
	ஆடி + கு+ கொண்டான்
	ஆடி + க் + கு+ க் + கொண்டான்
	ஆடிக்குக்கொண்டான்




விதி எட்டு

ஐ முன்னர் 'இக்கு' வில் - 'இ'  கெடுதல் (நூற்.128)
நிலைமொழியில் 'ஐ' கர ஈற்றுச் சொல் வரும்போது + இடைமொழி 'இக்கு'ச் சாரியை வரும்போது + வருமொழி 
வருதலில் => இடைமொழியில் உள்ள 'இ' எழுத்து நீங்கும்.
சித்திரை + இக்கு + கொண்டான்
   சித்திரை + க்கு + கொண்டான்
   சித்திரைக்கு + க் + கொண்டான்
   சித்திரைக்குக் கொண்டான்


விதி எட்டு

# 'அக்கு' --> 'அ' மட்டும் நுன்று பிற எழுத்துக்கள் கெடுகம்.   (நூற்.129)
# நிலைமொழி எந்தப் பெயரும் வல்லெழுத்தோடு வந்தால் + இடைமொழி 'அக்க'ச் சாரியையின் 'க்க' தெடும் + வருமொழி.
#  குன்று + அக்கு + குடி 	(று = ற் + உ)
    குன்ற் + அக்கு + குடி
    குன்ற் + அ + குடி
    குன்ற +க் + குடி
  குன்றக்குடி

 





விதி ஒன்பது
அம் சாரியை ஈறு திரிதல்(நூற் - 130)

நிலைமொழி + 'அம்' சாரியை இருக்க + க ச த 
வருமொழியாய் வரும்பொழுது
 அம் -> ங, ஞ, ந திரியும்

புளி + (ய்) அம் + கிளை 
புளி + ய் + அ[ம்] + கிளை 
புளிய[ம்] + கிளை 
புளியங்கிளை 




விதி பத்து 
அம் சாரியை ஈறு கெடுதல் (நுற் - 131)

நிலைமொழி + 'அம்' சாரியை 

இருக்க + மெல்லினம், இடையினம் வரும்பொழுது 
-> அம் ஈறு கெடும்
 
புளி + (ய்) அம் + நுனி 
புளி + ய் + அ[ம்] + நுனி 
புளிய[ம்] + நுனி
புளியநுனி 



விதி பதினொன்று

'இன்' உருபு முன் 'இன்' சாரியை  தேவையில்லை   
 
நிலைமொழி + 'இன்' உருபு + 'இன்' சாரியை + வருமொழி 
வரும்பொழுது -> 'இன்' சாரியை தேவையில்லை

வீடு + இன் + இன் + தென்புறம்
	 சாரியை  உருபு
வீ[ ட் + உ] + இன் + இன் + தென்புறம்

வீ[ ட் + ட் ] + இன் + இன் + தென்புறம்

வீட்ட் + இன்  இன் + தென்புறம்

வீட்டின்தென்புறம்








விதி பன்னிரண்டு

அத்து, வற்றுச் சாரியை புணர்ச்சி (நுற் - 134)

நிலைமொழி + 'அத்து , வற்றுச' சாரியை + வருமொழி

வல்லெழுத்து வரும் பொழுது 

1) நிலைமொழி + மெய் நீங்கும்
2) அத்து , வற்று -> சாரியை பின் வல்லேழுத்து மிகும்

மடம் + அத்து + கேணி 

மட + அத்து + கேணி 


ம[ட்+ அ] + அத்து + கேணி 
ட = ட்+ அ => கெடுதல் என்னும் விதிப்பட்டி 'அ' நீங்கும்

ம ட் + அத்து + கேணி 
ட்+அ = ட

மடத்து + கேணி 

மடத்து[க்] + கேணி 
ஒற்று இறட்டல்


மடத்து + க் + கேணி 

மடத்துக்கேணி 






விதி பதின்மூன்று

எழுத்துச் சாரியை சேர்த்துக் தமிழ்மரபு (நூற் - 135)

எழுத்துச் சாறியைகள் -> கரம் , காரம், கான்
அகரம் , பகாரம் , கான்




விதி 14


நெட்டெழுத்துச் சாரியை(நூற் -136)

'காரம்' மட்டும் நெடில் எழுத்துக்குப் பின்பு வரும்
ஈகாரம், ஊகாரம், ஏகாரம்



விதி 15

குறில் எழுத்துச் சாரியை(நூற்-137)
கரம், கான், காரம், மூன்றும் குறில் எழுத்துக்குப் பின்பு வரும்
அகாரம், அகரம், அஃகான்


விதி 16
ஐ,ஔ -> கான் சாரியையொடு வரும் (நூற்-138)

ஐகான், ஔகான்



விதி 17

# புள்ளி(மெய்) ஈற்றின் முன்பு உயிர் புணர்ச்சி(நூற்.139)
# நிலைமொழி ஈற்றில் மெய் வந்தால் + வருமொழி
	முதல் உயிர் எழுத்தாக இருந்தாதல் உயிர் தனுத்து
	நிற்காது -> முன் உள்ள மெய்யொடு சேரும் 
								\|/
			உடல்மேல் ...

# கடல் + அலை
	கட + [ல் + அ] + லை
	கடலலை




விதி 18

# உயிர் எழுத்து பிரிந்தபின்பு மெய் எழுத்தின் வடிவம்(நூற்.140)

# புணர்ச்சியில் சொற்களைப் பிரிக்கும் பொழுது,
	\|/
	1) உயிர் எழுத்து பிரியும்
	2) மெய் தனக்குரிய வடிவத்தைப் பெறும்


ஆல் + இலை

ஆலிலை  




விதி 19

# உயீரீற்றின் முன்பு உயிர்வரும் புணர்ச்சி = 
	உடம்படுமெய் புணர்ச்சி ( நூற்.141 )

#	எல்லாச் சொற்றளுக்கும் உயிரீறு முன் உயிர்
	வரும் பொழுது உடம்படுமெய் வரும்

#	நிலைமொழி உயிரீற்றுச் சொல் வரும் போது + 
	வருமொழியிலும் உயிர் வந்தால் => உடம்படுமெய் வரும்

#	கூலி + ஆள் 
	கூலி + ய் + ஆள் 
	கூலியாள்

# சில இடங்களில் உடம்படுமெய் இல்லாமலும் வரும்

#	கடை + இல்லை => கடை இல்லை

# அது தனித்தனிச் சொல்லாக நிற்கும் பொழுது.

